{
  "manifest" : {
    "id" : "02155251502870156346",
    "number" : "0215525150287",
    "date" : "01/02/2018",
    "pages": 6,
    "currentPage": 1,
    "itemsPerPage": 10,
    "totalItems" : 36
  },
  "courier" : {
    "id" : "854620",
    "round" : "155250",
    "name" : "Asif Iqbal"
  },
  "manifestData": [
    {
      "barcode" : "0000000000000002",
      "clientName" : "JD Williams & Company Limited",
      "customerName" : "Miss Rebecca Wilkinson",
      "customerReference1" : "H17TY06ZJWDDFDF",
      "customerReference2" : "LOREMIPSUM12312",
      "index" : "1",
      "parcelType" : "01",
      "serviceOffers" : ["2DAY", "NDAY", "TUE"],
      "trackingPointReference" : "CFWD",
      "address" : {
        "line1": "999",
        "line2": "Huddersfield Avenue",
        "line3": "Huddersfield",
        "line4": "",
        "line5": "",
        "line6": "",
        "postCode": "HD11AB"
      }
    },
    {
      "barcode" : "0000000000000002",
      "clientName" : "JD Williams & Company Limited",
      "customerName" : "Miss Rebecca Wilkinson",
      "customerReference1" : "H17TY06ZJWDDFDF",
      "customerReference2" : "LOREMIPSUM12312",
      "index" : "2",
      "parcelType" : "02",
      "serviceOffers" : ["2DAY", "NDAY", "TUE"],
      "trackingPointReference" : "CFWD",
      "address" : {
        "line1": "999",
        "line2": "Huddersfield Avenue",
        "line3": "Huddersfield",
        "line4": "",
        "line5": "",
        "line6": "",
        "postCode": "HD11AB"
      }
    },
    {
      "barcode" : "0000000000000002",
      "clientName" : "JD Williams & Company Limited",
      "customerName" : "Miss Rebecca Wilkinson",
      "customerReference1" : "H17TY06ZJWDDFDF",
      "customerReference2" : "LOREMIPSUM12312",
      "index" : "3",
      "parcelType" : "CL",
      "serviceOffers" : ["2DAY", "NDAY", "TUE"],
      "trackingPointReference" : "BFWD",
      "address" : {
        "line1": "999",
        "line2": "Huddersfield Avenue",
        "line3": "Huddersfield",
        "line4": "",
        "line5": "",
        "line6": "",
        "postCode": "HD11AB"
      }
    },
    {
      "barcode" : "0000000000000002",
      "clientName" : "JD Williams & Company Limited",
      "customerName" : "Miss Rebecca Wilkinson",
      "customerReference1" : "H17TY06ZJWDDFDF",
      "customerReference2" : "LOREMIPSUM12312",
      "index" : "3",
      "parcelType" : "CL",
      "serviceOffers" : ["2DAY", "NDAY", "TUE"],
      "trackingPointReference" : "BFWD",
      "address" : {
        "line1": "999",
        "line2": "Huddersfield Avenue",
        "line3": "Huddersfield",
        "line4": "",
        "line5": "",
        "line6": "",
        "postCode": "HD11AB"
      }
    },
    {
      "barcode" : "0000000000000002",
      "clientName" : "JD Williams & Company Limited",
      "customerName" : "Miss Rebecca Wilkinson",
      "customerReference1" : "H17TY06ZJWDDFDF",
      "customerReference2" : "LOREMIPSUM12312",
      "index" : "3",
      "parcelType" : "CL",
      "serviceOffers" : ["2DAY", "NDAY", "TUE"],
      "trackingPointReference" : "BFWD",
      "address" : {
        "line1": "999",
        "line2": "Huddersfield Avenue",
        "line3": "Huddersfield",
        "line4": "",
        "line5": "",
        "line6": "",
        "postCode": "HD11AB"
      }
    },
    {
      "barcode" : "0000000000000002",
      "clientName" : "JD Williams & Company Limited",
      "customerName" : "Miss Rebecca Wilkinson",
      "customerReference1" : "H17TY06ZJWDDFDF",
      "customerReference2" : "LOREMIPSUM12312",
      "index" : "3",
      "parcelType" : "CL",
      "serviceOffers" : ["2DAY", "NDAY", "TUE"],
      "trackingPointReference" : "BFWD",
      "address" : {
        "line1": "999",
        "line2": "Huddersfield Avenue",
        "line3": "Huddersfield",
        "line4": "",
        "line5": "",
        "line6": "",
        "postCode": "HD11AB"
      }
    },
    {
      "barcode" : "0000000000000002",
      "clientName" : "JD Williams & Company Limited",
      "customerName" : "Miss Rebecca Wilkinson",
      "customerReference1" : "H17TY06ZJWDDFDF",
      "customerReference2" : "LOREMIPSUM12312",
      "index" : "3",
      "parcelType" : "CL",
      "serviceOffers" : ["2DAY", "NDAY", "TUE"],
      "trackingPointReference" : "BFWD",
      "address" : {
        "line1": "999",
        "line2": "Huddersfield Avenue",
        "line3": "Huddersfield",
        "line4": "",
        "line5": "",
        "line6": "",
        "postCode": "HD11AB"
      }
    },
    {
      "barcode" : "0000000000000002",
      "clientName" : "JD Williams & Company Limited",
      "customerName" : "Miss Rebecca Wilkinson",
      "customerReference1" : "H17TY06ZJWDDFDF",
      "customerReference2" : "LOREMIPSUM12312",
      "index" : "3",
      "parcelType" : "CL",
      "serviceOffers" : ["2DAY", "NDAY", "TUE"],
      "trackingPointReference" : "BFWD",
      "address" : {
        "line1": "999",
        "line2": "Huddersfield Avenue",
        "line3": "Huddersfield",
        "line4": "",
        "line5": "",
        "line6": "",
        "postCode": "HD11AB"
      }
    },
    {
      "barcode" : "0000000000000002",
      "clientName" : "JD Williams & Company Limited",
      "customerName" : "Miss Rebecca Wilkinson",
      "customerReference1" : "H17TY06ZJWDDFDF",
      "customerReference2" : "LOREMIPSUM12312",
      "index" : "3",
      "parcelType" : "CL",
      "serviceOffers" : ["2DAY", "NDAY", "TUE"],
      "trackingPointReference" : "BFWD",
      "address" : {
        "line1": "999",
        "line2": "Huddersfield Avenue",
        "line3": "Huddersfield",
        "line4": "",
        "line5": "",
        "line6": "",
        "postCode": "HD11AB"
      }
    },
    {
      "barcode" : "0000000000000002",
      "clientName" : "JD Williams & Company Limited",
      "customerName" : "Miss Rebecca Wilkinson",
      "customerReference1" : "H17TY06ZJWDDFDF",
      "customerReference2" : "LOREMIPSUM12312",
      "index" : "3",
      "parcelType" : "CL",
      "serviceOffers" : ["2DAY", "NDAY", "TUE"],
      "trackingPointReference" : "BFWD",
      "address" : {
        "line1": "999",
        "line2": "Huddersfield Avenue",
        "line3": "Huddersfield",
        "line4": "",
        "line5": "",
        "line6": "",
        "postCode": "HD11AB"
      }
    },
    {
      "barcode" : "0000000000000002",
      "clientName" : "JD Williams & Company Limited",
      "customerName" : "Miss Rebecca Wilkinson",
      "customerReference1" : "H17TY06ZJWDDFDF",
      "customerReference2" : "LOREMIPSUM12312",
      "index" : "3",
      "parcelType" : "CL",
      "serviceOffers" : ["2DAY", "NDAY", "TUE"],
      "trackingPointReference" : "BFWD",
      "address" : {
        "line1": "999",
        "line2": "Huddersfield Avenue",
        "line3": "Huddersfield",
        "line4": "",
        "line5": "",
        "line6": "",
        "postCode": "HD11AB"
      }
    },
    {
      "barcode" : "0000000000000002",
      "clientName" : "JD Williams & Company Limited",
      "customerName" : "Miss Rebecca Wilkinson",
      "customerReference1" : "H17TY06ZJWDDFDF",
      "customerReference2" : "LOREMIPSUM12312",
      "index" : "3",
      "parcelType" : "CL",
      "serviceOffers" : ["2DAY", "NDAY", "TUE"],
      "trackingPointReference" : "BFWD",
      "address" : {
        "line1": "999",
        "line2": "Huddersfield Avenue",
        "line3": "Huddersfield",
        "line4": "",
        "line5": "",
        "line6": "",
        "postCode": "HD11AB"
      }
    },
    {
      "barcode" : "0000000000000002",
      "clientName" : "JD Williams & Company Limited",
      "customerName" : "Miss Rebecca Wilkinson",
      "customerReference1" : "H17TY06ZJWDDFDF",
      "customerReference2" : "LOREMIPSUM12312",
      "index" : "3",
      "parcelType" : "CL",
      "serviceOffers" : ["2DAY", "NDAY", "TUE"],
      "trackingPointReference" : "BFWD",
      "address" : {
        "line1": "999",
        "line2": "Huddersfield Avenue",
        "line3": "Huddersfield",
        "line4": "",
        "line5": "",
        "line6": "",
        "postCode": "HD11AB"
      }
    },
    {
      "barcode" : "0000000000000002",
      "clientName" : "JD Williams & Company Limited",
      "customerName" : "Miss Rebecca Wilkinson",
      "customerReference1" : "H17TY06ZJWDDFDF",
      "customerReference2" : "LOREMIPSUM12312",
      "index" : "3",
      "parcelType" : "CL",
      "serviceOffers" : ["2DAY", "NDAY", "TUE"],
      "trackingPointReference" : "BFWD",
      "address" : {
        "line1": "999",
        "line2": "Huddersfield Avenue",
        "line3": "Huddersfield",
        "line4": "",
        "line5": "",
        "line6": "",
        "postCode": "HD11AB"
      }
    },
    {
      "barcode" : "0000000000000002",
      "clientName" : "JD Williams & Company Limited",
      "customerName" : "Miss Rebecca Wilkinson",
      "customerReference1" : "H17TY06ZJWDDFDF",
      "customerReference2" : "LOREMIPSUM12312",
      "index" : "3",
      "parcelType" : "CL",
      "serviceOffers" : ["2DAY", "NDAY", "TUE"],
      "trackingPointReference" : "BFWD",
      "address" : {
        "line1": "999",
        "line2": "Huddersfield Avenue",
        "line3": "Huddersfield",
        "line4": "",
        "line5": "",
        "line6": "",
        "postCode": "HD11AB"
      }
    },
    {
      "barcode" : "0000000000000002",
      "clientName" : "JD Williams & Company Limited",
      "customerName" : "Miss Rebecca Wilkinson",
      "customerReference1" : "H17TY06ZJWDDFDF",
      "customerReference2" : "LOREMIPSUM12312",
      "index" : "4",
      "parcelType" : "CL",
      "serviceOffers" : ["2DAY", "NDAY", "TUE"],
      "trackingPointReference" : "BFWD",
      "address" : {
        "line1": "999",
        "line2": "Huddersfield Avenue",
        "line3": "Huddersfield",
        "line4": "",
        "line5": "",
        "line6": "",
        "postCode": "HD11AB"
      }
    }
  ]
}
